Perform a query using the MediaWiki Action API — get_query_results • wikkitidy
…
# tidyr is useful for list-columns.
if (tibble::is_tibble(all_results)) {
  all_results %>%
    tidyr::unnest(cols=c(categories), names_sep = "_")
}
#> # A tibble: 57 × 5
#>    pageid    ns title         categories_ns categories_title                    
#>     <int> <int> <chr>                 <int> <chr>                               
#>  1  27848     0 Steve Wozniak            14 Category:1950 births                
#>  2  27848     0 Steve Wozniak            14 Category:20th-century American busi…
#>  3  27848     0 Steve Wozniak            14 Category:20th-century American engi…
#>  4  27848     0 Steve Wozniak            14 Category:20th-century American inve…
#>  5  27848     0 Steve Wozniak            14 Category:21st-century American busi…
#>  6  27848     0 Steve Wozniak            14 Category:21st-century American engi…
#>  7  27848     0 Steve Wozniak            14 Category:21st-century American inve…
#>  8  27848     0 Steve Wozniak            14 Category:Academic staff of the Univ…
#>  9  27848     0 Steve Wozniak            14 Category:Amateur radio people       
#> 10  27848     0 Steve Wozniak            14 Category:American Freemasons        
#> # ℹ 47 more rows
…
