Get data about pages from their titles — page_vector_functions • wikkitidy
…
# Unest to get one row per related page:
tidyr::unnest(cities, "related")
#> # A tibble: 40 × 33
#>    city  pageid    ns index type  title displaytitle namespace_id namespace_text
#>    <chr>  <int> <int> <int> <chr> <chr> <chr>               <int> <chr>         
#>  1 Berl… 3.72e3     0    19 stan… Berl… "<span clas…            0 ""            
#>  2 Berl… 3.76e3     0    12 stan… Bran… "<span clas…            0 ""            
#>  3 Berl… 1.19e4     0    13 stan… Germ… "<span clas…            0 ""            
#>  4 Berl… 4.91e4     0    17 stan… Pots… "<span clas…            0 ""            
#>  5 Berl… 1.48e5     0    15 stan… Berl… "<span clas…            0 ""            
#>  6 Berl… 1.57e5     0     5 stan… Bran… "<span clas…            0 ""            
#>  7 Berl… 2.72e5     0     3 stan… Berl… "<span clas…            0 ""            
#>  8 Berl… 3.88e5     0    10 stan… Mitte "<span clas…            0 ""            
#>  9 Berl… 4.33e5     0     7 stan… Berl… "<span clas…            0 ""            
#> 10 Berl… 1.14e6     0     8 stan… Hert… "<span clas…            0 ""            
#> # ℹ 30 more rows
#> # ℹ 24 more variables: wikibase_item <chr>, titles_canonical <chr>,
#> #   titles_normalized <chr>, titles_display <chr>, thumbnail_source <chr>,
#> #   thumbnail_width <int>, thumbnail_height <int>, originalimage_source <chr>,
#> #   originalimage_width <int>, originalimage_height <int>, lang <chr>,
#> #   dir <chr>, revision <chr>, tid <chr>, timestamp <chr>, description <chr>,
#> #   description_source <chr>, coordinates_lat <dbl>, coordinates_lon <dbl>, …
…
