Explore Wikipedia's category system — query_category_members • wikkitidy
…
# Build the tree of all trees in Wikipedia
tree <- build_category_tree("Category:Trees (graph theory)")
#> ⠙ Walking subcategories: 1 done (423/s) | 3ms
#> ⠹ Walking subcategories: 2 done (22/s) | 93ms
#> ⠸ Walking subcategories: 3 done (18/s) | 167ms
#> ⠼ Walking subcategories: 4 done (15/s) | 261ms
#> ⠴ Walking subcategories: 5 done (15/s) | 335ms
#> ⠦ Walking subcategories: 6 done (15/s) | 413ms
#> ⠧ Walking subcategories: 7 done (14/s) | 488ms
#> ⠇ Walking subcategories: 8 done (14/s) | 556ms
#> ⠏ Walking subcategories: 9 done (14/s) | 645ms
tree
#> $nodes
#> # A tibble: 298 × 4
#>      pageid    ns title                         type 
#>       <int> <int> <chr>                         <chr>
#>  1 17606898    14 Category:Trees_(graph_theory) root 
#>  2    48560     0 Tree (graph theory)           page 
#>  3 44659935     0 Agreement forest              page 
#>  4 13251077     0 Arborescence (graph theory)   page 
#>  5  1410431     0 Bethe lattice                 page 
#>  6 29106883     0 Block graph                   page 
#>  7 48861658     0 Blossom tree (graph theory)   page 
#>  8 16823137     0 Branch-decomposition          page 
#>  9 68638522     0 Buchholz hydra                page 
#> 10 27258886     0 Caterpillar tree              page 
#> # ℹ 288 more rows
#> 
#> $edges
#> # A tibble: 318 × 3
#>      source   target timestamp           
#>       <int>    <int> <chr>               
#>  1 17606898    48560 2008-05-25T15:51:35Z
#>  2 17606898 44659935 2014-12-12T11:24:55Z
#>  3 17606898 13251077 2010-09-09T15:01:59Z
#>  4 17606898  1410431 2008-05-25T15:53:18Z
#>  5 17606898 29106883 2010-10-08T00:51:39Z
#>  6 17606898 48861658 2015-12-21T22:02:29Z
#>  7 17606898 16823137 2008-06-01T07:24:50Z
#>  8 17606898 68638522 2021-09-03T22:35:48Z
#>  9 17606898 27258886 2010-05-07T00:17:15Z
#> 10 17606898  1266713 2008-06-01T07:17:42Z
#> # ℹ 308 more rows
…
